{
  "algorithm": {
    "parameters": [
      {
        "name": "id",
        "type": "integer"
      }
    ],
    "statements": [
      {
        "command": "Return",
        "expression": "RdsSelectOne(Ias.Users, This(), id == ^id)"
      }
    ],
    "typeReturn": "User",
    "variables": []
  },
  "routing": {
    "method": "GET",
    "parameters": [
      {
        "bind": "id",
        "in": "Path",
        "name": "id",
        "remarks": "Id."
      }
    ],
    "path": "/user/{id}",
    "remarks": "Allows to get a User.",
    "responses": []
  }
}